module go-backend

go 1.21.4

require (
	github.com/gin-contrib/cors v1.5.0
	github.com/gin-gonic/gin v1.9.1
	gorm.io/gorm v1.25.5
)

require (
	github.com/chenzhuoyu/iasm v0.9.0 // indirect
	github.com/go-sql-driver/mysql v1.7.0 // indirect
	github.com/golang/protobuf v1.5.0 // indirect
	github.com/gorilla/context v1.1.1 // indirect
	github.com/gorilla/mux v1.6.2 // indirect
	github.com/gorilla/securecookie v1.1.1 // indirect
	github.com/gorilla/sessions v1.1.1 // indirect
	github.com/jinzhu/inflection v1.0.0 // indirect
	github.com/jinzhu/now v1.1.5 // indirect
	github.com/mattn/go-sqlite3 v1.14.17 // indirect
	golang.org/x/oauth2 v0.0.0-20200902213428-5d25da1a8d43 // indirect
	google.golang.org/appengine v1.6.6 // indirect
)

require (
	github.com/bytedance/sonic v1.10.1 // indirect
	github.com/chenzhuoyu/base64x v0.0.0-20230717121745-296ad89f973d // indirect
	github.com/gabriel-vasile/mimetype v1.4.2 // indirect
	github.com/gin-contrib/sse v0.1.0 // indirect
	github.com/go-playground/locales v0.14.1 // indirect
	github.com/go-playground/universal-translator v0.18.1 // indirect
	github.com/go-playground/validator/v10 v10.15.5 // indirect
	github.com/goccy/go-json v0.10.2 // indirect
	github.com/json-iterator/go v1.1.12 // indirect
	github.com/klauspost/cpuid/v2 v2.2.5 // indirect
	github.com/leodido/go-urn v1.2.4 // indirect
	github.com/markbates/goth v1.78.0
	github.com/mattn/go-isatty v0.0.19 // indirect
	github.com/modern-go/concurrent v0.0.0-20180306012644-bacd9c7ef1dd // indirect
	github.com/modern-go/reflect2 v1.0.2 // indirect
	github.com/pelletier/go-toml/v2 v2.1.0 // indirect
	github.com/twitchyliquid64/golang-asm v0.15.1 // indirect
	github.com/ugorji/go/codec v1.2.11 // indirect
	golang.org/x/arch v0.5.0 // indirect
	golang.org/x/crypto v0.14.0 // indirect
	golang.org/x/net v0.16.0 // indirect
	golang.org/x/sys v0.13.0 // indirect
	golang.org/x/text v0.13.0 // indirect
	google.golang.org/protobuf v1.31.0 // indirect
	gopkg.in/yaml.v3 v3.0.1 // indirect
	gorm.io/driver/mysql v1.5.2
	gorm.io/driver/sqlite v1.5.4
)
